EESchema Schematic File Version 4
LIBS:led-spy-samd-cache
EELAYER 29 0
EELAYER END
$Descr A4 11693 8268
encoding utf-8
Sheet 1 1
Title ""
Date ""
Rev ""
Comp ""
Comment1 ""
Comment2 ""
Comment3 ""
Comment4 ""
$EndDescr
$Comp
L MCU_Microchip_SAMD:ATSAMD21G18A-AUT U1
U 1 1 60AD8416
P 2800 3000
F 0 "U1" H 2800 1011 50  0000 C CNN
F 1 "ATSAMD21G18A-AUT" H 2800 920 50  0000 C CNN
F 2 "Package_QFP:TQFP-48_7x7mm_P0.5mm" H 1850 1250 50  0001 C CNN
F 3 "http://ww1.microchip.com/downloads/en/DeviceDoc/SAMD21-Family-DataSheet-DS40001882D.pdf" H 2800 4000 50  0001 C CNN
	1    2800 3000
	1    0    0    -1  
$EndComp
$Comp
L Transistor_FET:BSS138 Q2
U 1 1 60AE155F
P 6250 1400
F 0 "Q2" V 6499 1400 50  0000 C CNN
F 1 "BSS138" V 6590 1400 50  0000 C CNN
F 2 "Package_TO_SOT_SMD:SOT-23" H 6450 1325 50  0001 L CIN
F 3 "https://www.fairchildsemi.com/datasheets/BS/BSS138.pdf" H 6250 1400 50  0001 L CNN
	1    6250 1400
	0    1    1    0   
$EndComp
$Comp
L Device:R_Small R7
U 1 1 60AE71E0
P 5900 1300
F 0 "R7" H 5841 1254 50  0000 R CNN
F 1 "10K" H 5841 1345 50  0000 R CNN
F 2 "Resistor_SMD:R_0603_1608Metric_Pad1.05x0.95mm_HandSolder" H 5900 1300 50  0001 C CNN
F 3 "~" H 5900 1300 50  0001 C CNN
	1    5900 1300
	-1   0    0    1   
$EndComp
$Comp
L power:+3.3V #PWR020
U 1 1 60AF094E
P 5900 1200
F 0 "#PWR020" H 5900 1050 50  0001 C CNN
F 1 "+3.3V" H 5915 1373 50  0000 C CNN
F 2 "" H 5900 1200 50  0001 C CNN
F 3 "" H 5900 1200 50  0001 C CNN
	1    5900 1200
	1    0    0    -1  
$EndComp
$Comp
L power:+5V #PWR024
U 1 1 60AF0E7D
P 6600 1200
F 0 "#PWR024" H 6600 1050 50  0001 C CNN
F 1 "+5V" H 6615 1373 50  0000 C CNN
F 2 "" H 6600 1200 50  0001 C CNN
F 3 "" H 6600 1200 50  0001 C CNN
	1    6600 1200
	1    0    0    -1  
$EndComp
Wire Wire Line
	6600 1500 6450 1500
Wire Wire Line
	6050 1500 5900 1500
Wire Wire Line
	5900 1500 5900 1400
Wire Wire Line
	6600 1500 6600 1400
$Comp
L Device:R_Small R11
U 1 1 60AFEE3E
P 6600 1300
F 0 "R11" H 6541 1254 50  0000 R CNN
F 1 "10K" H 6541 1345 50  0000 R CNN
F 2 "Resistor_SMD:R_0603_1608Metric_Pad1.05x0.95mm_HandSolder" H 6600 1300 50  0001 C CNN
F 3 "~" H 6600 1300 50  0001 C CNN
	1    6600 1300
	-1   0    0    1   
$EndComp
Wire Wire Line
	5900 1200 6250 1200
Connection ~ 5900 1200
$Comp
L Transistor_FET:BSS138 Q3
U 1 1 60B03761
P 6250 2100
F 0 "Q3" V 6499 2100 50  0000 C CNN
F 1 "BSS138" V 6590 2100 50  0000 C CNN
F 2 "Package_TO_SOT_SMD:SOT-23" H 6450 2025 50  0001 L CIN
F 3 "https://www.fairchildsemi.com/datasheets/BS/BSS138.pdf" H 6250 2100 50  0001 L CNN
	1    6250 2100
	0    1    1    0   
$EndComp
$Comp
L Device:R_Small R8
U 1 1 60B0376B
P 5900 2000
F 0 "R8" H 5841 1954 50  0000 R CNN
F 1 "10K" H 5841 2045 50  0000 R CNN
F 2 "Resistor_SMD:R_0603_1608Metric_Pad1.05x0.95mm_HandSolder" H 5900 2000 50  0001 C CNN
F 3 "~" H 5900 2000 50  0001 C CNN
	1    5900 2000
	-1   0    0    1   
$EndComp
$Comp
L power:+3.3V #PWR021
U 1 1 60B03775
P 5900 1900
F 0 "#PWR021" H 5900 1750 50  0001 C CNN
F 1 "+3.3V" H 5915 2073 50  0000 C CNN
F 2 "" H 5900 1900 50  0001 C CNN
F 3 "" H 5900 1900 50  0001 C CNN
	1    5900 1900
	1    0    0    -1  
$EndComp
$Comp
L power:+5V #PWR025
U 1 1 60B0377F
P 6600 1900
F 0 "#PWR025" H 6600 1750 50  0001 C CNN
F 1 "+5V" H 6615 2073 50  0000 C CNN
F 2 "" H 6600 1900 50  0001 C CNN
F 3 "" H 6600 1900 50  0001 C CNN
	1    6600 1900
	1    0    0    -1  
$EndComp
Wire Wire Line
	6600 2200 6450 2200
Wire Wire Line
	6050 2200 5900 2200
Wire Wire Line
	5900 2200 5900 2100
Wire Wire Line
	6600 2200 6600 2100
$Comp
L Device:R_Small R12
U 1 1 60B0378D
P 6600 2000
F 0 "R12" H 6541 1954 50  0000 R CNN
F 1 "10K" H 6541 2045 50  0000 R CNN
F 2 "Resistor_SMD:R_0603_1608Metric_Pad1.05x0.95mm_HandSolder" H 6600 2000 50  0001 C CNN
F 3 "~" H 6600 2000 50  0001 C CNN
	1    6600 2000
	-1   0    0    1   
$EndComp
Wire Wire Line
	5900 1900 6250 1900
Connection ~ 5900 1900
$Comp
L Transistor_FET:BSS138 Q5
U 1 1 60B12202
P 7950 1400
F 0 "Q5" V 8199 1400 50  0000 C CNN
F 1 "BSS138" V 8290 1400 50  0000 C CNN
F 2 "Package_TO_SOT_SMD:SOT-23" H 8150 1325 50  0001 L CIN
F 3 "https://www.fairchildsemi.com/datasheets/BS/BSS138.pdf" H 7950 1400 50  0001 L CNN
	1    7950 1400
	0    1    1    0   
$EndComp
$Comp
L Device:R_Small R14
U 1 1 60B1220C
P 7600 1300
F 0 "R14" H 7541 1254 50  0000 R CNN
F 1 "10K" H 7541 1345 50  0000 R CNN
F 2 "Resistor_SMD:R_0603_1608Metric_Pad1.05x0.95mm_HandSolder" H 7600 1300 50  0001 C CNN
F 3 "~" H 7600 1300 50  0001 C CNN
	1    7600 1300
	-1   0    0    1   
$EndComp
$Comp
L power:+3.3V #PWR027
U 1 1 60B12216
P 7600 1200
F 0 "#PWR027" H 7600 1050 50  0001 C CNN
F 1 "+3.3V" H 7615 1373 50  0000 C CNN
F 2 "" H 7600 1200 50  0001 C CNN
F 3 "" H 7600 1200 50  0001 C CNN
	1    7600 1200
	1    0    0    -1  
$EndComp
$Comp
L power:+5V #PWR030
U 1 1 60B12220
P 8300 1200
F 0 "#PWR030" H 8300 1050 50  0001 C CNN
F 1 "+5V" H 8315 1373 50  0000 C CNN
F 2 "" H 8300 1200 50  0001 C CNN
F 3 "" H 8300 1200 50  0001 C CNN
	1    8300 1200
	1    0    0    -1  
$EndComp
Wire Wire Line
	8300 1500 8150 1500
Wire Wire Line
	7750 1500 7600 1500
Wire Wire Line
	7600 1500 7600 1400
Wire Wire Line
	8300 1500 8300 1400
$Comp
L Device:R_Small R16
U 1 1 60B1222E
P 8300 1300
F 0 "R16" H 8241 1254 50  0000 R CNN
F 1 "10K" H 8241 1345 50  0000 R CNN
F 2 "Resistor_SMD:R_0603_1608Metric_Pad1.05x0.95mm_HandSolder" H 8300 1300 50  0001 C CNN
F 3 "~" H 8300 1300 50  0001 C CNN
	1    8300 1300
	-1   0    0    1   
$EndComp
Wire Wire Line
	7600 1200 7950 1200
Connection ~ 7600 1200
$Comp
L Transistor_FET:BSS138 Q6
U 1 1 60B1223A
P 7950 2100
F 0 "Q6" V 8199 2100 50  0000 C CNN
F 1 "BSS138" V 8290 2100 50  0000 C CNN
F 2 "Package_TO_SOT_SMD:SOT-23" H 8150 2025 50  0001 L CIN
F 3 "https://www.fairchildsemi.com/datasheets/BS/BSS138.pdf" H 7950 2100 50  0001 L CNN
	1    7950 2100
	0    1    1    0   
$EndComp
$Comp
L Device:R_Small R15
U 1 1 60B12244
P 7600 2000
F 0 "R15" H 7541 1954 50  0000 R CNN
F 1 "10K" H 7541 2045 50  0000 R CNN
F 2 "Resistor_SMD:R_0603_1608Metric_Pad1.05x0.95mm_HandSolder" H 7600 2000 50  0001 C CNN
F 3 "~" H 7600 2000 50  0001 C CNN
	1    7600 2000
	-1   0    0    1   
$EndComp
$Comp
L power:+3.3V #PWR028
U 1 1 60B1224E
P 7600 1900
F 0 "#PWR028" H 7600 1750 50  0001 C CNN
F 1 "+3.3V" H 7615 2073 50  0000 C CNN
F 2 "" H 7600 1900 50  0001 C CNN
F 3 "" H 7600 1900 50  0001 C CNN
	1    7600 1900
	1    0    0    -1  
$EndComp
$Comp
L power:+5V #PWR031
U 1 1 60B12258
P 8300 1900
F 0 "#PWR031" H 8300 1750 50  0001 C CNN
F 1 "+5V" H 8315 2073 50  0000 C CNN
F 2 "" H 8300 1900 50  0001 C CNN
F 3 "" H 8300 1900 50  0001 C CNN
	1    8300 1900
	1    0    0    -1  
$EndComp
Wire Wire Line
	8300 2200 8150 2200
Wire Wire Line
	7750 2200 7600 2200
Wire Wire Line
	7600 2200 7600 2100
Wire Wire Line
	8300 2200 8300 2100
$Comp
L Device:R_Small R17
U 1 1 60B12266
P 8300 2000
F 0 "R17" H 8241 1954 50  0000 R CNN
F 1 "10K" H 8241 2045 50  0000 R CNN
F 2 "Resistor_SMD:R_0603_1608Metric_Pad1.05x0.95mm_HandSolder" H 8300 2000 50  0001 C CNN
F 3 "~" H 8300 2000 50  0001 C CNN
	1    8300 2000
	-1   0    0    1   
$EndComp
Wire Wire Line
	7600 1900 7950 1900
Connection ~ 7600 1900
Text GLabel 5900 1500 0    50   Input ~ 0
SDA_LV
Text GLabel 5900 2200 0    50   Input ~ 0
SCL_LV
Text GLabel 6600 1500 2    50   Input ~ 0
SDA_HV
Text GLabel 6600 2200 2    50   Input ~ 0
SCL_HV
Text GLabel 8300 2200 2    50   Input ~ 0
TX_HV
Text GLabel 7600 2200 0    50   Input ~ 0
TX_LV
Text GLabel 8300 1500 2    50   Input ~ 0
RX_HV
Text GLabel 7600 1500 0    50   Input ~ 0
RX_LV
$Comp
L Connector:Conn_01x04_Male JEXT1
U 1 1 60B96936
P 9750 1900
F 0 "JEXT1" H 9722 1828 50  0000 R CNN
F 1 "Conn_01x04_Male" H 9722 1783 50  0001 R CNN
F 2 "Connector_JST:JST_PH_S4B-PH-K_1x04_P2.00mm_Horizontal" H 9750 1900 50  0001 C CNN
F 3 "~" H 9750 1900 50  0001 C CNN
	1    9750 1900
	-1   0    0    -1  
$EndComp
Text GLabel 9550 2000 0    50   Input ~ 0
RX_HV
Text GLabel 9550 2100 0    50   Input ~ 0
TX_HV
$Comp
L power:+5V #PWR037
U 1 1 60BB367D
P 9550 1900
F 0 "#PWR037" H 9550 1750 50  0001 C CNN
F 1 "+5V" V 9565 2028 50  0000 L CNN
F 2 "" H 9550 1900 50  0001 C CNN
F 3 "" H 9550 1900 50  0001 C CNN
	1    9550 1900
	0    -1   -1   0   
$EndComp
$Comp
L power:GND #PWR038
U 1 1 60BB45C9
P 9550 1800
F 0 "#PWR038" H 9550 1550 50  0001 C CNN
F 1 "GND" V 9555 1672 50  0000 R CNN
F 2 "" H 9550 1800 50  0001 C CNN
F 3 "" H 9550 1800 50  0001 C CNN
	1    9550 1800
	0    1    1    0   
$EndComp
$Comp
L Connector:Conn_01x04_Male JLED1
U 1 1 60BDC806
P 9700 2550
F 0 "JLED1" H 9672 2478 50  0000 R CNN
F 1 "Conn_01x04_Male" H 9672 2433 50  0001 R CNN
F 2 "Connector_JST:JST_PH_S4B-PH-K_1x04_P2.00mm_Horizontal" H 9700 2550 50  0001 C CNN
F 3 "~" H 9700 2550 50  0001 C CNN
	1    9700 2550
	-1   0    0    -1  
$EndComp
$Comp
L Connector:Conn_01x05_Male JUSB1
U 1 1 60BE03D6
P 10800 4000
F 0 "JUSB1" H 10772 3978 50  0000 R CNN
F 1 "Conn_01x05_Male" H 10772 3933 50  0001 R CNN
F 2 "Connector_JST:JST_PH_S5B-PH-K_1x05_P2.00mm_Horizontal" H 10800 4000 50  0001 C CNN
F 3 "~" H 10800 4000 50  0001 C CNN
	1    10800 4000
	-1   0    0    -1  
$EndComp
$Comp
L Connector:Conn_01x04_Male JDB1
U 1 1 60BEAB6B
P 9700 4400
F 0 "JDB1" H 9672 4378 50  0000 R CNN
F 1 "Conn_01x04_Male" H 9672 4333 50  0001 R CNN
F 2 "Connector_JST:JST_PH_S4B-PH-K_1x04_P2.00mm_Horizontal" H 9700 4400 50  0001 C CNN
F 3 "~" H 9700 4400 50  0001 C CNN
	1    9700 4400
	-1   0    0    -1  
$EndComp
Text GLabel 9500 4400 0    50   Input ~ 0
SDA_HV
Text GLabel 9500 4500 0    50   Input ~ 0
SCL_HV
$Comp
L power:GND #PWR035
U 1 1 60BFF865
P 9500 4600
F 0 "#PWR035" H 9500 4350 50  0001 C CNN
F 1 "GND" V 9505 4472 50  0000 R CNN
F 2 "" H 9500 4600 50  0001 C CNN
F 3 "" H 9500 4600 50  0001 C CNN
	1    9500 4600
	0    1    1    0   
$EndComp
$Comp
L Device:D_Schottky D5
U 1 1 60C20F5B
P 9200 2950
F 0 "D5" V 9154 3029 50  0000 L CNN
F 1 "PMEG40T10ERX" V 9245 3029 50  0000 L CNN
F 2 "Diode_SMD:D_SOD-123" H 9200 2950 50  0001 C CNN
F 3 "~" H 9200 2950 50  0001 C CNN
F 4 "https://www.digikey.com/en/products/detail/central-semiconductor-corp/CMHSH5-4-TR-PBFREE/4806989" H 9200 2950 50  0001 C CNN "Digikey"
	1    9200 2950
	0    1    1    0   
$EndComp
$Comp
L power:VBUS #PWR041
U 1 1 60C9323C
P 10250 3800
F 0 "#PWR041" H 10250 3650 50  0001 C CNN
F 1 "VBUS" H 10265 3973 50  0000 C CNN
F 2 "" H 10250 3800 50  0001 C CNN
F 3 "" H 10250 3800 50  0001 C CNN
	1    10250 3800
	1    0    0    -1  
$EndComp
Wire Wire Line
	10600 3800 10250 3800
$Comp
L power:+5V #PWR040
U 1 1 60C95CAC
P 9950 3800
F 0 "#PWR040" H 9950 3650 50  0001 C CNN
F 1 "+5V" V 9965 3928 50  0000 L CNN
F 2 "" H 9950 3800 50  0001 C CNN
F 3 "" H 9950 3800 50  0001 C CNN
	1    9950 3800
	0    -1   -1   0   
$EndComp
Wire Wire Line
	9500 3100 9200 3100
Connection ~ 10250 3800
$Comp
L Device:D_Schottky D7
U 1 1 60C94E31
P 10100 3800
F 0 "D7" H 10100 4016 50  0000 C CNN
F 1 "PMEG40T10ERX" H 10100 3925 50  0000 C CNN
F 2 "Diode_SMD:D_SOD-123" H 10100 3800 50  0001 C CNN
F 3 "~" H 10100 3800 50  0001 C CNN
F 4 "https://www.mouser.com/ProductDetail/Nexperia/PMEG40T10ERX?qs=1mbolxNpo8fzzI6kof6vdA%3D%3D" H 10100 3800 50  0001 C CNN "Digikey"
	1    10100 3800
	1    0    0    -1  
$EndComp
NoConn ~ 9500 2750
$Comp
L Transistor_FET:BSS138 Q1
U 1 1 60D023D1
P 6200 3750
F 0 "Q1" V 6449 3750 50  0000 C CNN
F 1 "BSS138" V 6540 3750 50  0000 C CNN
F 2 "Package_TO_SOT_SMD:SOT-23" H 6400 3675 50  0001 L CIN
F 3 "https://www.fairchildsemi.com/datasheets/BS/BSS138.pdf" H 6200 3750 50  0001 L CNN
	1    6200 3750
	0    1    1    0   
$EndComp
$Comp
L Device:R_Small R6
U 1 1 60D023DB
P 5850 3650
F 0 "R6" H 5791 3604 50  0000 R CNN
F 1 "10K" H 5791 3695 50  0000 R CNN
F 2 "Resistor_SMD:R_0603_1608Metric_Pad1.05x0.95mm_HandSolder" H 5850 3650 50  0001 C CNN
F 3 "~" H 5850 3650 50  0001 C CNN
	1    5850 3650
	-1   0    0    1   
$EndComp
$Comp
L power:+3.3V #PWR019
U 1 1 60D023E5
P 5850 3550
F 0 "#PWR019" H 5850 3400 50  0001 C CNN
F 1 "+3.3V" H 5865 3723 50  0000 C CNN
F 2 "" H 5850 3550 50  0001 C CNN
F 3 "" H 5850 3550 50  0001 C CNN
	1    5850 3550
	1    0    0    -1  
$EndComp
$Comp
L power:+5V #PWR023
U 1 1 60D023EF
P 6550 3550
F 0 "#PWR023" H 6550 3400 50  0001 C CNN
F 1 "+5V" H 6565 3723 50  0000 C CNN
F 2 "" H 6550 3550 50  0001 C CNN
F 3 "" H 6550 3550 50  0001 C CNN
	1    6550 3550
	1    0    0    -1  
$EndComp
Wire Wire Line
	6550 3850 6400 3850
Wire Wire Line
	6000 3850 5850 3850
Wire Wire Line
	5850 3850 5850 3750
Wire Wire Line
	6550 3850 6550 3750
$Comp
L Device:R_Small R10
U 1 1 60D023FD
P 6550 3650
F 0 "R10" H 6491 3604 50  0000 R CNN
F 1 "10K" H 6491 3695 50  0000 R CNN
F 2 "Resistor_SMD:R_0603_1608Metric_Pad1.05x0.95mm_HandSolder" H 6550 3650 50  0001 C CNN
F 3 "~" H 6550 3650 50  0001 C CNN
	1    6550 3650
	-1   0    0    1   
$EndComp
Wire Wire Line
	5850 3550 6200 3550
Connection ~ 5850 3550
Text GLabel 5850 3850 0    50   Input ~ 0
LED_DATA_LV
Text GLabel 6550 3850 2    50   Input ~ 0
LED_DATA_HV
Text GLabel 9500 2450 0    50   Input ~ 0
LED_DATA_HV
$Comp
L power:GND #PWR033
U 1 1 60D15EE1
P 9500 2550
F 0 "#PWR033" H 9500 2300 50  0001 C CNN
F 1 "GND" V 9505 2422 50  0000 R CNN
F 2 "" H 9500 2550 50  0001 C CNN
F 3 "" H 9500 2550 50  0001 C CNN
	1    9500 2550
	0    1    1    0   
$EndComp
$Comp
L power:GND #PWR034
U 1 1 60D1D5C0
P 9500 3400
F 0 "#PWR034" H 9500 3150 50  0001 C CNN
F 1 "GND" V 9505 3272 50  0000 R CNN
F 2 "" H 9500 3400 50  0001 C CNN
F 3 "" H 9500 3400 50  0001 C CNN
	1    9500 3400
	0    1    1    0   
$EndComp
$Comp
L Connector:Conn_01x04_Male JPWR1
U 1 1 60BDEE45
P 9700 3200
F 0 "JPWR1" H 9672 3128 50  0000 R CNN
F 1 "Conn_01x04_Male" H 9672 3083 50  0001 R CNN
F 2 "Connector_JST:JST_PH_S4B-PH-K_1x04_P2.00mm_Horizontal" H 9700 3200 50  0001 C CNN
F 3 "~" H 9700 3200 50  0001 C CNN
	1    9700 3200
	-1   0    0    -1  
$EndComp
Wire Wire Line
	9500 3200 9500 3300
Wire Wire Line
	10600 4100 10600 4200
$Comp
L power:GND #PWR042
U 1 1 60D31AC2
P 10600 4200
F 0 "#PWR042" H 10600 3950 50  0001 C CNN
F 1 "GND" H 10605 4027 50  0000 C CNN
F 2 "" H 10600 4200 50  0001 C CNN
F 3 "" H 10600 4200 50  0001 C CNN
	1    10600 4200
	1    0    0    -1  
$EndComp
Connection ~ 10600 4200
Text GLabel 10600 3900 0    50   Input ~ 0
D-
Text GLabel 10600 4000 0    50   Input ~ 0
D+
$Comp
L Device:Crystal Y1
U 1 1 60D3E427
P 1400 1350
F 0 "Y1" H 1446 1219 50  0000 R CNN
F 1 "32.768KHz" H 1500 1500 50  0000 R CNN
F 2 "Crystal:Crystal_SMD_3215-2Pin_3.2x1.5mm" H 1400 1350 50  0001 C CNN
F 3 "~" H 1400 1350 50  0001 C CNN
F 4 "https://www.digikey.com/en/products/detail/ndk-america-inc/NX3215SA-32-768K-STD-MUS-2/2349033" H 1400 1350 50  0001 C CNN "digikey"
	1    1400 1350
	0    -1   -1   0   
$EndComp
Wire Wire Line
	1400 1500 1800 1500
Wire Wire Line
	1800 1400 1600 1400
Wire Wire Line
	1600 1400 1600 1200
Wire Wire Line
	1600 1200 1400 1200
Wire Wire Line
	1400 1200 1150 1200
Connection ~ 1400 1200
Wire Wire Line
	1400 1500 1150 1500
Connection ~ 1400 1500
$Comp
L Device:C_Small C1
U 1 1 60D439B9
P 1050 1200
F 0 "C1" V 821 1200 50  0000 C CNN
F 1 "22pF" V 912 1200 50  0000 C CNN
F 2 "Capacitor_SMD:C_0603_1608Metric_Pad1.05x0.95mm_HandSolder" H 1050 1200 50  0001 C CNN
F 3 "~" H 1050 1200 50  0001 C CNN
	1    1050 1200
	0    1    1    0   
$EndComp
$Comp
L Device:C_Small C2
U 1 1 60D43EF6
P 1050 1500
F 0 "C2" V 950 1500 50  0000 C CNN
F 1 "22pF" V 900 1500 50  0000 C CNN
F 2 "Capacitor_SMD:C_0603_1608Metric_Pad1.05x0.95mm_HandSolder" H 1050 1500 50  0001 C CNN
F 3 "~" H 1050 1500 50  0001 C CNN
	1    1050 1500
	0    -1   -1   0   
$EndComp
Wire Wire Line
	950  1200 950  1350
$Comp
L power:GND #PWR01
U 1 1 60D478D8
P 950 1350
F 0 "#PWR01" H 950 1100 50  0001 C CNN
F 1 "GND" V 955 1222 50  0000 R CNN
F 2 "" H 950 1350 50  0001 C CNN
F 3 "" H 950 1350 50  0001 C CNN
	1    950  1350
	0    1    1    0   
$EndComp
Connection ~ 950  1350
Wire Wire Line
	950  1350 950  1500
$Comp
L Device:C_Small C4
U 1 1 60D50FCE
P 1600 1700
F 0 "C4" V 1550 1600 50  0000 C CNN
F 1 "1uF" V 1550 1800 50  0000 C CNN
F 2 "Capacitor_SMD:C_0603_1608Metric_Pad1.05x0.95mm_HandSolder" H 1600 1700 50  0001 C CNN
F 3 "~" H 1600 1700 50  0001 C CNN
	1    1600 1700
	0    1    1    0   
$EndComp
Wire Wire Line
	1800 1700 1700 1700
$Comp
L power:GND #PWR03
U 1 1 60D539B4
P 1500 1700
F 0 "#PWR03" H 1500 1450 50  0001 C CNN
F 1 "GND" V 1505 1572 50  0000 R CNN
F 2 "" H 1500 1700 50  0001 C CNN
F 3 "" H 1500 1700 50  0001 C CNN
	1    1500 1700
	0    1    1    0   
$EndComp
NoConn ~ 1800 1600
Text GLabel 3800 1600 2    50   Input ~ 0
TX_LV
Text GLabel 3800 1700 2    50   Input ~ 0
RX_LV
NoConn ~ 1800 1800
NoConn ~ 1800 1900
NoConn ~ 1800 2000
NoConn ~ 1800 2100
Text GLabel 1800 2200 0    50   Input ~ 0
SDA_LV
Text GLabel 1800 2300 0    50   Input ~ 0
SCL_LV
Text GLabel 1800 2400 0    50   Input ~ 0
MCP_SNS_LV
Text GLabel 1800 2500 0    50   Input ~ 0
LED_DATA_LV
Text GLabel 1800 4300 0    50   Input ~ 0
SWDIO
Text GLabel 1800 4200 0    50   Input ~ 0
SWCLK
Text GLabel 1800 4500 0    50   Input ~ 0
NRST
$Comp
L Connector:Conn_01x08_Male JTAG1
U 1 1 60D79E8F
P 4650 4950
F 0 "JTAG1" H 4450 4900 50  0000 C CNN
F 1 "SOIC Bite" H 4450 5000 50  0000 C CNN
F 2 "footprints:SOIC_clipProgSmall" H 4650 4950 50  0001 C CNN
F 3 "~" H 4650 4950 50  0001 C CNN
	1    4650 4950
	1    0    0    -1  
$EndComp
$Comp
L power:GND #PWR06
U 1 1 60D809D2
P 1700 5150
F 0 "#PWR06" H 1700 4900 50  0001 C CNN
F 1 "GND" V 1705 5022 50  0000 R CNN
F 2 "" H 1700 5150 50  0001 C CNN
F 3 "" H 1700 5150 50  0001 C CNN
	1    1700 5150
	0    -1   -1   0   
$EndComp
$Comp
L Device:LED_Small D4
U 1 1 60D8DCB0
P 3350 6800
F 0 "D4" H 3350 7035 50  0000 C CNN
F 1 "LED_Small" H 3350 6944 50  0000 C CNN
F 2 "LED_SMD:LED_0603_1608Metric_Pad1.05x0.95mm_HandSolder" V 3350 6800 50  0001 C CNN
F 3 "~" V 3350 6800 50  0001 C CNN
	1    3350 6800
	1    0    0    -1  
$EndComp
$Comp
L Device:LED_Small D3
U 1 1 60D8D733
P 3350 6400
F 0 "D3" H 3350 6635 50  0000 C CNN
F 1 "LED_Small" H 3350 6544 50  0000 C CNN
F 2 "LED_SMD:LED_0603_1608Metric_Pad1.05x0.95mm_HandSolder" V 3350 6400 50  0001 C CNN
F 3 "~" V 3350 6400 50  0001 C CNN
	1    3350 6400
	1    0    0    -1  
$EndComp
$Comp
L Device:LED_Small D2
U 1 1 60D8CEAF
P 3350 6050
F 0 "D2" H 3350 6285 50  0000 C CNN
F 1 "LED_Small" H 3350 6194 50  0000 C CNN
F 2 "LED_SMD:LED_0603_1608Metric_Pad1.05x0.95mm_HandSolder" V 3350 6050 50  0001 C CNN
F 3 "~" V 3350 6050 50  0001 C CNN
	1    3350 6050
	1    0    0    -1  
$EndComp
$Comp
L Device:LED_Small D1
U 1 1 60D895E8
P 3350 5600
F 0 "D1" H 3350 5835 50  0000 C CNN
F 1 "LED_Small" H 3350 5744 50  0000 C CNN
F 2 "LED_SMD:LED_0603_1608Metric_Pad1.05x0.95mm_HandSolder" V 3350 5600 50  0001 C CNN
F 3 "~" V 3350 5600 50  0001 C CNN
	1    3350 5600
	1    0    0    -1  
$EndComp
$Comp
L Regulator_Linear:XC6206PxxxMR U2
U 1 1 60AF4C89
P 4600 2950
F 0 "U2" H 4600 3192 50  0000 C CNN
F 1 "XC6206P332MR" H 4600 3101 50  0000 C CNN
F 2 "Package_TO_SOT_SMD:SOT-23" H 4600 3175 50  0001 C CIN
F 3 "https://www.torexsemi.com/file/xc6206/XC6206.pdf" H 4600 2950 50  0001 C CNN
	1    4600 2950
	1    0    0    -1  
$EndComp
$Comp
L power:+5V #PWR013
U 1 1 60AFDBAA
P 4150 2950
F 0 "#PWR013" H 4150 2800 50  0001 C CNN
F 1 "+5V" V 4165 3078 50  0000 L CNN
F 2 "" H 4150 2950 50  0001 C CNN
F 3 "" H 4150 2950 50  0001 C CNN
	1    4150 2950
	0    -1   -1   0   
$EndComp
$Comp
L power:VCC #PWR016
U 1 1 60B21DFE
P 4850 4650
F 0 "#PWR016" H 4850 4500 50  0001 C CNN
F 1 "VCC" V 4867 4778 50  0000 L CNN
F 2 "" H 4850 4650 50  0001 C CNN
F 3 "" H 4850 4650 50  0001 C CNN
	1    4850 4650
	0    1    1    0   
$EndComp
$Comp
L power:VCC #PWR014
U 1 1 60B2B07D
P 4150 2950
F 0 "#PWR014" H 4150 2800 50  0001 C CNN
F 1 "VCC" H 4167 3123 50  0000 C CNN
F 2 "" H 4150 2950 50  0001 C CNN
F 3 "" H 4150 2950 50  0001 C CNN
	1    4150 2950
	1    0    0    -1  
$EndComp
Wire Wire Line
	4150 2950 4250 2950
Connection ~ 4150 2950
$Comp
L Device:C_Small C9
U 1 1 60B34BB3
P 4250 3050
F 0 "C9" V 4150 3050 50  0000 C CNN
F 1 "10uF" V 4350 3100 50  0000 C CNN
F 2 "Capacitor_SMD:C_0603_1608Metric_Pad1.05x0.95mm_HandSolder" H 4250 3050 50  0001 C CNN
F 3 "~" H 4250 3050 50  0001 C CNN
	1    4250 3050
	-1   0    0    1   
$EndComp
Connection ~ 4250 2950
Wire Wire Line
	4250 2950 4300 2950
Wire Wire Line
	4250 3150 4250 3250
Wire Wire Line
	4250 3250 4600 3250
$Comp
L Device:C_Small C10
U 1 1 60B48F14
P 4950 3050
F 0 "C10" V 4850 3050 50  0000 C CNN
F 1 "10uF" V 5050 3100 50  0000 C CNN
F 2 "Capacitor_SMD:C_0603_1608Metric_Pad1.05x0.95mm_HandSolder" H 4950 3050 50  0001 C CNN
F 3 "~" H 4950 3050 50  0001 C CNN
	1    4950 3050
	-1   0    0    1   
$EndComp
Wire Wire Line
	4900 2950 4950 2950
Wire Wire Line
	4950 3150 4950 3250
Wire Wire Line
	4950 3250 4600 3250
Connection ~ 4600 3250
$Comp
L power:+3.3V #PWR018
U 1 1 60B4D7D2
P 4950 2950
F 0 "#PWR018" H 4950 2800 50  0001 C CNN
F 1 "+3.3V" V 4965 3078 50  0000 L CNN
F 2 "" H 4950 2950 50  0001 C CNN
F 3 "" H 4950 2950 50  0001 C CNN
	1    4950 2950
	0    1    1    0   
$EndComp
Connection ~ 4950 2950
$Comp
L power:GND #PWR015
U 1 1 60B53E2E
P 4600 3250
F 0 "#PWR015" H 4600 3000 50  0001 C CNN
F 1 "GND" H 4605 3077 50  0000 C CNN
F 2 "" H 4600 3250 50  0001 C CNN
F 3 "" H 4600 3250 50  0001 C CNN
	1    4600 3250
	1    0    0    -1  
$EndComp
$Comp
L power:GND #PWR017
U 1 1 60B608AD
P 4850 4950
F 0 "#PWR017" H 4850 4700 50  0001 C CNN
F 1 "GND" V 4855 4822 50  0000 R CNN
F 2 "" H 4850 4950 50  0001 C CNN
F 3 "" H 4850 4950 50  0001 C CNN
	1    4850 4950
	0    -1   -1   0   
$EndComp
Text GLabel 4850 5050 2    50   Input ~ 0
SWDIO
Text GLabel 4850 5250 2    50   Input ~ 0
SWCLK
Text GLabel 4850 5350 2    50   Input ~ 0
NRST
NoConn ~ 4850 5150
NoConn ~ 4850 4850
NoConn ~ 4850 4750
Wire Wire Line
	3000 1100 2900 1100
Connection ~ 2700 1100
Wire Wire Line
	2700 1100 2600 1100
Connection ~ 2900 1100
Wire Wire Line
	2900 1100 2700 1100
$Comp
L power:+3.3V #PWR07
U 1 1 60BF0B76
P 2600 1100
F 0 "#PWR07" H 2600 950 50  0001 C CNN
F 1 "+3.3V" V 2615 1228 50  0000 L CNN
F 2 "" H 2600 1100 50  0001 C CNN
F 3 "" H 2600 1100 50  0001 C CNN
	1    2600 1100
	0    -1   -1   0   
$EndComp
Connection ~ 2600 1100
$Comp
L Device:C_Small C5
U 1 1 60BF13FA
P 2600 1000
F 0 "C5" V 2550 900 50  0000 C CNN
F 1 ".1uF" V 2650 900 50  0000 C CNN
F 2 "Capacitor_SMD:C_0603_1608Metric_Pad1.05x0.95mm_HandSolder" H 2600 1000 50  0001 C CNN
F 3 "~" H 2600 1000 50  0001 C CNN
	1    2600 1000
	-1   0    0    1   
$EndComp
$Comp
L Device:C_Small C6
U 1 1 60BF1D76
P 2700 800
F 0 "C6" V 2650 700 50  0000 C CNN
F 1 ".1uF" V 2750 700 50  0000 C CNN
F 2 "Capacitor_SMD:C_0603_1608Metric_Pad1.05x0.95mm_HandSolder" H 2700 800 50  0001 C CNN
F 3 "~" H 2700 800 50  0001 C CNN
	1    2700 800 
	-1   0    0    1   
$EndComp
$Comp
L Device:C_Small C7
U 1 1 60BF2AB9
P 2900 800
F 0 "C7" V 2850 700 50  0000 C CNN
F 1 ".1uF" V 2950 700 50  0000 C CNN
F 2 "Capacitor_SMD:C_0603_1608Metric_Pad1.05x0.95mm_HandSolder" H 2900 800 50  0001 C CNN
F 3 "~" H 2900 800 50  0001 C CNN
	1    2900 800 
	-1   0    0    1   
$EndComp
$Comp
L Device:C_Small C8
U 1 1 60BF3079
P 3000 1000
F 0 "C8" V 2950 900 50  0000 C CNN
F 1 "1uF" V 3050 900 50  0000 C CNN
F 2 "Capacitor_SMD:C_0603_1608Metric_Pad1.05x0.95mm_HandSolder" H 3000 1000 50  0001 C CNN
F 3 "~" H 3000 1000 50  0001 C CNN
	1    3000 1000
	-1   0    0    1   
$EndComp
Connection ~ 3000 1100
Wire Wire Line
	2600 900  2600 700 
Wire Wire Line
	2600 700  2700 700 
Wire Wire Line
	3000 700  3000 900 
Connection ~ 2700 700 
Wire Wire Line
	2700 700  2800 700 
Connection ~ 2900 700 
Wire Wire Line
	2900 700  3000 700 
Wire Wire Line
	2700 900  2700 1100
Wire Wire Line
	2900 900  2900 1100
$Comp
L power:GND #PWR09
U 1 1 60BF7F41
P 2800 700
F 0 "#PWR09" H 2800 450 50  0001 C CNN
F 1 "GND" H 2805 527 50  0000 C CNN
F 2 "" H 2800 700 50  0001 C CNN
F 3 "" H 2800 700 50  0001 C CNN
	1    2800 700 
	-1   0    0    1   
$EndComp
Connection ~ 2800 700 
Wire Wire Line
	2800 700  2900 700 
$Comp
L power:GND #PWR08
U 1 1 60BFE587
P 2700 4900
F 0 "#PWR08" H 2700 4650 50  0001 C CNN
F 1 "GND" V 2705 4772 50  0000 R CNN
F 2 "" H 2700 4900 50  0001 C CNN
F 3 "" H 2700 4900 50  0001 C CNN
	1    2700 4900
	1    0    0    -1  
$EndComp
$Comp
L power:GND #PWR010
U 1 1 60BFEED9
P 2900 4900
F 0 "#PWR010" H 2900 4650 50  0001 C CNN
F 1 "GND" V 2905 4772 50  0000 R CNN
F 2 "" H 2900 4900 50  0001 C CNN
F 3 "" H 2900 4900 50  0001 C CNN
	1    2900 4900
	1    0    0    -1  
$EndComp
NoConn ~ 3800 1400
NoConn ~ 3800 1500
NoConn ~ 3800 1800
NoConn ~ 3800 1900
NoConn ~ 3800 2000
NoConn ~ 3800 2100
NoConn ~ 1800 4100
NoConn ~ 1800 4000
NoConn ~ 1800 3700
NoConn ~ 1800 3600
NoConn ~ 1800 3500
NoConn ~ 1800 2800
NoConn ~ 1800 2700
NoConn ~ 1800 2600
Text GLabel 1800 3300 0    50   Input ~ 0
TX_LED
Text GLabel 1800 3200 0    50   Input ~ 0
RX_LED
Text GLabel 1800 3100 0    50   Input ~ 0
BOOT_LED
Text GLabel 3250 6050 0    50   Input ~ 0
TX_LED
Text GLabel 3250 6400 0    50   Input ~ 0
RX_LED
Text GLabel 3250 5600 0    50   Input ~ 0
BOOT_LED
$Comp
L Device:R_Small R5
U 1 1 60CD2F82
P 3550 6800
F 0 "R5" H 3491 6754 50  0000 R CNN
F 1 "10K" H 3491 6845 50  0000 R CNN
F 2 "Resistor_SMD:R_0603_1608Metric_Pad1.05x0.95mm_HandSolder" H 3550 6800 50  0001 C CNN
F 3 "~" H 3550 6800 50  0001 C CNN
	1    3550 6800
	0    -1   -1   0   
$EndComp
$Comp
L Device:R_Small R4
U 1 1 60CDA623
P 3550 6400
F 0 "R4" H 3491 6354 50  0000 R CNN
F 1 "1K" H 3491 6445 50  0000 R CNN
F 2 "Resistor_SMD:R_0603_1608Metric_Pad1.05x0.95mm_HandSolder" H 3550 6400 50  0001 C CNN
F 3 "~" H 3550 6400 50  0001 C CNN
	1    3550 6400
	0    -1   -1   0   
$EndComp
$Comp
L Device:R_Small R3
U 1 1 60CDAE22
P 3550 6050
F 0 "R3" H 3491 6004 50  0000 R CNN
F 1 "1K" H 3491 6095 50  0000 R CNN
F 2 "Resistor_SMD:R_0603_1608Metric_Pad1.05x0.95mm_HandSolder" H 3550 6050 50  0001 C CNN
F 3 "~" H 3550 6050 50  0001 C CNN
	1    3550 6050
	0    -1   -1   0   
$EndComp
$Comp
L Device:R_Small R2
U 1 1 60CDB445
P 3550 5600
F 0 "R2" H 3491 5554 50  0000 R CNN
F 1 "1K" H 3491 5645 50  0000 R CNN
F 2 "Resistor_SMD:R_0603_1608Metric_Pad1.05x0.95mm_HandSolder" H 3550 5600 50  0001 C CNN
F 3 "~" H 3550 5600 50  0001 C CNN
	1    3550 5600
	0    -1   -1   0   
$EndComp
$Comp
L power:GND #PWR011
U 1 1 60CE0342
P 3250 6800
F 0 "#PWR011" H 3250 6550 50  0001 C CNN
F 1 "GND" V 3255 6672 50  0000 R CNN
F 2 "" H 3250 6800 50  0001 C CNN
F 3 "" H 3250 6800 50  0001 C CNN
	1    3250 6800
	0    1    1    0   
$EndComp
Wire Wire Line
	3650 6800 3650 6400
Connection ~ 3650 6050
Wire Wire Line
	3650 6050 3650 5600
Connection ~ 3650 6400
Wire Wire Line
	3650 6400 3650 6050
$Comp
L power:+3.3V #PWR012
U 1 1 60CE7ABA
P 3650 5600
F 0 "#PWR012" H 3650 5450 50  0001 C CNN
F 1 "+3.3V" H 3665 5773 50  0000 C CNN
F 2 "" H 3650 5600 50  0001 C CNN
F 3 "" H 3650 5600 50  0001 C CNN
	1    3650 5600
	1    0    0    -1  
$EndComp
Connection ~ 3650 5600
$Comp
L power:+3.3V #PWR02
U 1 1 60CE8091
P 1350 5500
F 0 "#PWR02" H 1350 5350 50  0001 C CNN
F 1 "+3.3V" H 1365 5673 50  0000 C CNN
F 2 "" H 1350 5500 50  0001 C CNN
F 3 "" H 1350 5500 50  0001 C CNN
	1    1350 5500
	-1   0    0    1   
$EndComp
$Comp
L Device:C_Small C3
U 1 1 60D03D65
P 1450 5500
F 0 "C3" V 1400 5400 50  0000 C CNN
F 1 ".1uF" V 1500 5400 50  0000 C CNN
F 2 "Capacitor_SMD:C_0603_1608Metric_Pad1.05x0.95mm_HandSolder" H 1450 5500 50  0001 C CNN
F 3 "~" H 1450 5500 50  0001 C CNN
	1    1450 5500
	0    -1   -1   0   
$EndComp
Connection ~ 1350 5500
$Comp
L power:GND #PWR04
U 1 1 60D0C499
P 1550 5500
F 0 "#PWR04" H 1550 5250 50  0001 C CNN
F 1 "GND" V 1555 5372 50  0000 R CNN
F 2 "" H 1550 5500 50  0001 C CNN
F 3 "" H 1550 5500 50  0001 C CNN
	1    1550 5500
	0    -1   -1   0   
$EndComp
$Comp
L led-spy-samd-rescue:USB_B_Micro-Connector JUSB2
U 1 1 60DA23BD
P 9550 5300
F 0 "JUSB2" H 9607 5767 50  0000 C CNN
F 1 "USB_B_Micro" H 9607 5676 50  0000 C CNN
F 2 "Connector_USB:USB_Micro-B_Molex_47346-0001" H 9700 5250 50  0001 C CNN
F 3 "~" H 9700 5250 50  0001 C CNN
	1    9550 5300
	1    0    0    -1  
$EndComp
Wire Wire Line
	9450 5700 9500 5700
$Comp
L power:GND #PWR036
U 1 1 60DAB715
P 9500 5700
F 0 "#PWR036" H 9500 5450 50  0001 C CNN
F 1 "GND" H 9505 5527 50  0000 C CNN
F 2 "" H 9500 5700 50  0001 C CNN
F 3 "" H 9500 5700 50  0001 C CNN
	1    9500 5700
	1    0    0    -1  
$EndComp
Connection ~ 9500 5700
Wire Wire Line
	9500 5700 9550 5700
$Comp
L power:VBUS #PWR039
U 1 1 60DABB34
P 9850 5100
F 0 "#PWR039" H 9850 4950 50  0001 C CNN
F 1 "VBUS" V 9865 5228 50  0000 L CNN
F 2 "" H 9850 5100 50  0001 C CNN
F 3 "" H 9850 5100 50  0001 C CNN
	1    9850 5100
	0    1    1    0   
$EndComp
NoConn ~ 9850 5500
Text GLabel 9850 5300 2    50   Input ~ 0
D+
Text GLabel 9850 5400 2    50   Input ~ 0
D-
Text GLabel 1250 5900 0    50   Input ~ 0
NRST
$Comp
L power:GND #PWR05
U 1 1 60DC36C7
P 1650 5900
F 0 "#PWR05" H 1650 5650 50  0001 C CNN
F 1 "GND" V 1655 5772 50  0000 R CNN
F 2 "" H 1650 5900 50  0001 C CNN
F 3 "" H 1650 5900 50  0001 C CNN
	1    1650 5900
	0    -1   -1   0   
$EndComp
$Comp
L Connector:TestPoint TP1
U 1 1 60DC4421
P 1250 5900
F 0 "TP1" H 1192 5926 50  0000 R CNN
F 1 "TestPoint" H 1192 6017 50  0000 R CNN
F 2 "TestPoint:TestPoint_Pad_1.5x1.5mm" H 1450 5900 50  0001 C CNN
F 3 "~" H 1450 5900 50  0001 C CNN
	1    1250 5900
	-1   0    0    1   
$EndComp
$Comp
L Connector:TestPoint TP2
U 1 1 60DC54A4
P 1650 5900
F 0 "TP2" H 1708 6018 50  0000 L CNN
F 1 "TestPoint" H 1708 5927 50  0000 L CNN
F 2 "TestPoint:TestPoint_Pad_1.5x1.5mm" H 1850 5900 50  0001 C CNN
F 3 "~" H 1850 5900 50  0001 C CNN
	1    1650 5900
	1    0    0    -1  
$EndComp
$Comp
L Mechanical:MountingHole H2
U 1 1 60E1EAEB
P 6750 4850
F 0 "H2" H 6850 4896 50  0000 L CNN
F 1 "MountingHole" H 6850 4805 50  0000 L CNN
F 2 "MountingHole:MountingHole_3.2mm_M3" H 6750 4850 50  0001 C CNN
F 3 "~" H 6750 4850 50  0001 C CNN
	1    6750 4850
	1    0    0    -1  
$EndComp
$Comp
L Mechanical:MountingHole H1
U 1 1 60E2634C
P 6700 5200
F 0 "H1" H 6800 5246 50  0000 L CNN
F 1 "MountingHole" H 6800 5155 50  0000 L CNN
F 2 "MountingHole:MountingHole_3.2mm_M3" H 6700 5200 50  0001 C CNN
F 3 "~" H 6700 5200 50  0001 C CNN
	1    6700 5200
	1    0    0    -1  
$EndComp
$Comp
L Mechanical:MountingHole H4
U 1 1 60E26B32
P 7650 5150
F 0 "H4" H 7750 5196 50  0000 L CNN
F 1 "MountingHole" H 7750 5105 50  0000 L CNN
F 2 "MountingHole:MountingHole_3.2mm_M3" H 7650 5150 50  0001 C CNN
F 3 "~" H 7650 5150 50  0001 C CNN
	1    7650 5150
	1    0    0    -1  
$EndComp
$Comp
L Mechanical:MountingHole H3
U 1 1 60E272A8
P 7650 4700
F 0 "H3" H 7750 4746 50  0000 L CNN
F 1 "MountingHole" H 7750 4655 50  0000 L CNN
F 2 "MountingHole:MountingHole_3.2mm_M3" H 7650 4700 50  0001 C CNN
F 3 "~" H 7650 4700 50  0001 C CNN
	1    7650 4700
	1    0    0    -1  
$EndComp
$Comp
L Device:R_Small R1
U 1 1 60CE3B4F
P 1350 5400
F 0 "R1" H 1291 5354 50  0000 R CNN
F 1 "10K" H 1291 5445 50  0000 R CNN
F 2 "Resistor_SMD:R_0603_1608Metric_Pad1.05x0.95mm_HandSolder" H 1350 5400 50  0001 C CNN
F 3 "~" H 1350 5400 50  0001 C CNN
	1    1350 5400
	-1   0    0    1   
$EndComp
Text GLabel 1300 5150 0    50   Input ~ 0
NRST
$Comp
L Switch:SW_Push SW1
U 1 1 60D7F050
P 1500 5150
F 0 "SW1" H 1500 5435 50  0000 C CNN
F 1 "SW_Push" H 1500 5344 50  0000 C CNN
F 2 "Button_Switch_SMD:SW_Push_1P1T-SH_NO_CK_KMR2xxG" H 1500 5350 50  0001 C CNN
F 3 "~" H 1500 5350 50  0001 C CNN
	1    1500 5150
	1    0    0    -1  
$EndComp
Wire Wire Line
	1350 5300 1300 5300
Wire Wire Line
	1300 5300 1300 5150
$Comp
L power:+5V #PWR0101
U 1 1 60F49CEE
P 9500 4300
F 0 "#PWR0101" H 9500 4150 50  0001 C CNN
F 1 "+5V" V 9515 4428 50  0000 L CNN
F 2 "" H 9500 4300 50  0001 C CNN
F 3 "" H 9500 4300 50  0001 C CNN
	1    9500 4300
	0    -1   -1   0   
$EndComp
NoConn ~ 1800 2900
NoConn ~ 1800 3000
Text GLabel 1800 3900 0    50   Input ~ 0
D+
Text GLabel 1800 3800 0    50   Input ~ 0
D-
NoConn ~ 1800 3400
Wire Wire Line
	9500 2650 9200 2650
$Comp
L Device:Jumper JPLEDPWR1
U 1 1 60C2286D
P 8850 2950
F 0 "JPLEDPWR1" H 8850 3214 50  0000 C CNN
F 1 "Jumper" H 8850 3123 50  0000 C CNN
F 2 "Connector_PinHeader_2.54mm:PinHeader_1x02_P2.54mm_Vertical" H 8850 2950 50  0001 C CNN
F 3 "~" H 8850 2950 50  0001 C CNN
	1    8850 2950
	0    -1   -1   0   
$EndComp
Wire Wire Line
	9200 2800 9200 2650
Connection ~ 9200 2650
Wire Wire Line
	9200 2650 8850 2650
$Comp
L power:+5V #PWR0102
U 1 1 614EDD8F
P 8850 3250
F 0 "#PWR0102" H 8850 3100 50  0001 C CNN
F 1 "+5V" H 8865 3423 50  0000 C CNN
F 2 "" H 8850 3250 50  0001 C CNN
F 3 "" H 8850 3250 50  0001 C CNN
	1    8850 3250
	-1   0    0    1   
$EndComp
$EndSCHEMATC
