G04 #@! TF.GenerationSoftware,KiCad,Pcbnew,(5.99.0-12224-g0e3c79d3b2-dirty)*
G04 #@! TF.CreationDate,2021-12-03T12:03:40-05:00*
G04 #@! TF.ProjectId,led-spy-samd,6c65642d-7370-4792-9d73-616d642e6b69,rev?*
G04 #@! TF.SameCoordinates,Original*
G04 #@! TF.FileFunction,Paste,Bot*
G04 #@! TF.FilePolarity,Positive*
%FSLAX46Y46*%
G04 Gerber Fmt 4.6, Leading zero omitted, Abs format (unit mm)*
G04 Created by KiCad (PCBNEW (5.99.0-12224-g0e3c79d3b2-dirty)) date 2021-12-03 12:03:40*
%MOMM*%
%LPD*%
G01*
G04 APERTURE LIST*
G04 APERTURE END LIST*
M02*
